<?xml version="1.0" encoding="utf-8"?>
<!-- Generator: Adobe Illustrator 21.1.0, SVG Export Plug-In . SVG Version: 6.00 Build 0)  -->
<svg version="1.1" id="to_top_arrow" xmlns="http://www.w3.org/2000/svg" xmlns:xlink="http://www.w3.org/1999/xlink" x="0px"
	 y="0px" viewBox="0 0 500 500" style="enable-background:new 0 0 500 500;" xml:space="preserve">
<style type="text/css">
	.st0{fill:#231F20;}
	.st1{fill:#6085A6;}
</style>
<g>
	<g>
		<polygon class="st0" points="-582,331.8 -656.1,405.9 -830.8,231.3 -1005.5,405.9 -1079.6,331.8 -830.8,83 		"/>
	</g>
</g>
<g id="foot">
	<path class="st1" d="M-108.6,67.7c-0.1,0.6-0.3,1.3-0.3,1.9c-0.3,9-2.9,17.4-7.2,25.3c-9,16.6-22.5,27.7-41,32.3
		c-30.6,7.6-59.9-11.4-65.4-42.4c-3.4-18.8,1.5-35.7,13.2-50.6c9.6-12.2,22.2-19.8,37.5-22.8c1.8-0.3,3.7-0.7,5.5-1c3,0,6,0,9,0
		c0.3,0.1,0.6,0.3,0.9,0.3c2.9,0.5,5.9,0.9,8.8,1.6c25.4,6.9,38,29.4,38.8,48.2c0,0.7,0.2,1.4,0.3,2.1
		C-108.6,64.3-108.6,66-108.6,67.7z"/>
	<path class="st1" d="M-460.5,250c-0.1-7.7,0.3-16.6,1.6-25.4c2.4-16.1,5.5-32.1,10.9-47.6c8.3-23.6,22.9-42.2,44-55.6
		c15.6-9.9,32.2-17.5,49.9-22.5c10.4-2.9,21-4.4,31.7-5.1c7.5-0.5,14.9-0.4,22.4,0.1c18,1.3,35.4,5.3,51.9,13
		c12.7,5.9,22.8,14.8,30.9,26.1c10.3,14.4,16.5,30.4,18.9,47.9c1.2,8.2,1.3,16.3,0.3,24.5c-1,8.5-3.3,16.6-7.4,24.1
		c-7.5,13.7-18.9,22.2-34.2,25.4c-3.6,0.8-7.3,1.1-11,1.6c-15.1,2.1-29.6,6.3-42.8,14.1c-8.9,5.2-16.5,12-21.9,20.9
		c-4.5,7.4-6.8,15.4-7.6,23.9c-1,11.3,1.5,21.8,6.1,32c3.6,7.8,7.7,15.3,12,22.7c6,10.4,12.1,20.8,17.9,31.3
		c4.1,7.3,7.5,15,9.9,23.1c2.3,8,2.8,16,0.4,24c-3.1,10.3-9.7,17.8-19,23c-6.7,3.7-13.9,5.8-21.5,6.6c-12.5,1.2-24.9,0.6-37.2-2.1
		c-3.8-0.8-7.6-1.7-11.3-2.8c-9.2-2.8-17.1-7.8-24.3-14c-9.1-7.8-16.5-17.1-23-27.2c-9.8-15.3-17.3-31.7-23.4-48.7
		c-7.1-19.6-12.4-39.6-16.4-60.1c-2.4-12.3-4.3-24.7-5.7-37.2C-459.7,274.4-460.5,262.8-460.5,250z"/>
	<path class="st1" d="M-301,52.6c0.3-7.7,3.4-17,9.8-25c3.8-4.8,8.5-8.2,14.6-9.3c5.8-1,11.5-0.3,17,2c11.9,5.1,18.8,17,17.4,30
		c-0.8,7.8-3.2,15-7.6,21.4c-1.3,2-2.9,3.8-4.6,5.6c-4.6,4.7-10.2,7.1-16.8,7.1c-8.8,0-16.4-3.1-22.4-9.6
		C-298.7,69.3-301.1,62.6-301,52.6z"/>
	<path class="st1" d="M-368.1,48.4c0.4-3.2,0.7-6.5,1.4-9.6c1.5-7,5.3-12.7,11-17c6.5-4.9,13.6-5.8,21.2-3.2
		c7.6,2.7,13.4,7.6,16.7,15.1c4.4,10,5.4,20.3,2.5,30.8c-1.9,6.8-6,12.1-11.8,16c-6.4,4.3-13.3,4.8-20.5,2.1
		c-8.4-3.2-14.1-9-17.2-17.4C-366.8,60.2-367.9,54.1-368.1,48.4z"/>
	<path class="st1" d="M-401.8,102.1c-5.2,0.1-10.5-1.7-15-5.5c-7.7-6.4-12.4-14.5-13.9-24.3c-1.6-9.8,3.1-19,11.9-24.1
		s22.3-6,32,3.8c6.2,6.3,10.4,13.6,11.7,22.4c1.3,9.3-2.1,16.8-9.5,22.5C-389.4,100.4-395,102.1-401.8,102.1z"/>
	<path class="st1" d="M-450.7,140c-6.3-0.1-12.7-3.5-18-9.1c-5-5.3-7.8-11.6-8.5-18.8c-0.5-5.2,0.6-10.1,3.4-14.5
		c3.9-6.2,11-10.2,19.9-8.5c11.4,2.1,18.7,9.4,22.8,20c2.1,5.5,2.5,11.3,0.8,17C-433,134.5-440.2,139.9-450.7,140z"/>
</g>
<g id="foot_1_">
	<path class="st1" d="M44,93.4c0.2,0.6,0.5,1.2,0.5,1.8c1.5,8.9,5.2,16.9,10.5,24.1c11.1,15.3,25.9,24.5,44.9,26.6
		c31.3,3.5,57.9-19.2,59.3-50.6c0.9-19.1-6.2-35.2-19.7-48.4c-11.1-10.8-24.6-16.7-40.2-17.7c-1.8-0.1-3.8-0.2-5.6-0.3
		c-3,0.4-5.9,0.8-8.9,1.2c-0.3,0.1-0.6,0.4-0.9,0.4c-2.8,0.9-5.7,1.7-8.5,2.7C51.1,43.6,41.5,67.5,43.2,86.3c0.1,0.7,0,1.4,0,2.1
		C43.5,90.1,43.7,91.8,44,93.4z"/>
	<path class="st1" d="M416.8,227.9c-0.9-7.6-2.5-16.4-4.9-25c-4.5-15.6-9.7-31.1-17.1-45.8c-11.3-22.3-28.2-38.8-50.9-49.3
		c-16.8-7.8-34.2-13.1-52.4-15.8c-10.7-1.5-21.4-1.6-32.1-0.9c-7.5,0.5-14.8,1.6-22.2,3c-17.7,3.7-34.4,9.9-49.7,19.7
		c-11.8,7.5-20.7,17.7-27.2,29.9c-8.3,15.6-12.4,32.3-12.4,50c-0.1,8.3,0.9,16.3,2.9,24.3c2.1,8.3,5.5,16,10.5,22.9
		c9.2,12.6,21.7,19.5,37.2,20.7c3.7,0.3,7.4,0.1,11.1,0.1c15.2,0.1,30.2,2.4,44.3,8.4c9.5,4,17.9,9.7,24.5,17.8
		c5.4,6.7,8.8,14.4,10.7,22.7c2.5,11.1,1.4,21.8-1.8,32.5c-2.5,8.2-5.6,16.2-8.9,24.1c-4.6,11.1-9.3,22.2-13.6,33.4
		c-3.1,7.8-5.5,15.9-6.8,24.2c-1.2,8.2-0.7,16.2,2.8,23.8c4.4,9.8,12,16.4,21.9,20.3c7.1,2.8,14.5,3.9,22.2,3.7
		c12.5-0.5,24.8-2.7,36.6-7c3.7-1.3,7.3-2.7,10.8-4.3c8.8-4,15.9-10,22.3-17.1c8-8.9,14.1-19.1,19.2-30c7.7-16.5,13-33.7,16.8-51.4
		c4.5-20.4,7.1-40.9,8.4-61.7c0.8-12.5,1-25.1,0.8-37.6C419.2,252.2,418.4,240.6,416.8,227.9z"/>
	<path class="st1" d="M232.7,53.2c-1.3-7.6-5.6-16.4-13-23.5c-4.4-4.3-9.5-7-15.7-7.3c-5.9-0.2-11.4,1.2-16.6,4.2
		c-11.1,6.6-16.4,19.3-13.3,32c1.8,7.6,5.1,14.4,10.3,20.2c1.6,1.8,3.4,3.4,5.3,4.9c5.2,4.1,11,5.7,17.6,4.8
		c8.7-1.2,15.9-5.2,20.9-12.5C232.6,70.1,234.1,63.1,232.7,53.2z"/>
	<path class="st1" d="M298.8,40.2c-0.8-3.1-1.5-6.4-2.6-9.3c-2.4-6.7-6.9-11.9-13.1-15.4c-7.1-4-14.2-4-21.4-0.4
		c-7.2,3.7-12.3,9.3-14.6,17.2c-3,10.5-2.7,20.8,1.6,30.9c2.8,6.5,7.5,11.2,13.8,14.3c6.9,3.4,13.8,3,20.6-0.6
		c7.9-4.3,12.8-10.8,14.8-19.5C298.9,52.1,299.2,45.9,298.8,40.2z"/>
	<path class="st1" d="M339.1,89c5.2-0.6,10.2-3.1,14.1-7.4c6.8-7.4,10.4-16,10.6-25.9c0.3-9.9-5.6-18.4-15-22.3s-22.9-3-31.2,8
		c-5.3,7.1-8.5,14.8-8.7,23.7c-0.1,9.4,4.3,16.4,12.4,21.1C326.6,89,332.5,89.9,339.1,89z"/>
	<path class="st1" d="M392.6,120.2c6.2-0.9,12.1-5.1,16.6-11.4c4.3-5.9,6.2-12.5,6-19.8c-0.2-5.2-1.9-9.9-5.3-13.9
		c-4.7-5.6-12.2-8.7-20.8-5.8c-11,3.6-17.3,11.8-20,22.8c-1.4,5.7-1,11.5,1.4,17C374.3,117.1,382.3,121.4,392.6,120.2z"/>
</g>
</svg>
